// Jest Snapshot v1, https://goo.gl/fbAQLP

exports[`card-summary should render component 1`] = `
<card-summary date="2019-12-10T23:23:23.996" departingfrom="Manchester" noofdays="7" noofusers="[object" object]="">
  <mock:shadow-root>
    <div>
      <div>
        <span>
          <span class="important">
            0
          </span>
          adults,
          <span class="important">
            0
          </span>
          children &amp;
          <span class="important">
            0
          </span>
          infants
        </span>
      </div>
      <div>
        <span>
          <span class="important">
            2nd December 2019
          </span>
          for
          <span class="important"></span>
          days
        </span>
      </div>
      <div>
        Departing from
        <span class="important"></span>
      </div>
    </div>
  </mock:shadow-root>
</card-summary>
`;
